{
  "project_info": {
    "project_number": "566558907571",
    "firebase_url": "https://coronavirus-app-7d5bf.firebaseio.com",
    "project_id": "coronavirus-app-7d5bf",
    "storage_bucket": "coronavirus-app-7d5bf.appspot.com"
  },
  "client": [
    {
      "client_info": {
        "mobilesdk_app_id": "1:566558907571:android:1e01250196e6b4aa1564c6",
        "android_client_info": {
          "package_name": "com.vfstudio.coronavirus"
        }
      },
      "oauth_client": [
        {
          "client_id": "566558907571-uk7hqje5t0clgug7hgu7vg03ne4mmaa4.apps.googleusercontent.com",
          "client_type": 3
        }
      ],
      "api_key": [
        {
          "current_key": "AIzaSyBKu4Xklw5hhBU5akzdxxv6p5a_iqw4F00"
        }
      ],
      "services": {
        "appinvite_service": {
          "other_platform_oauth_client": [
            {
              "client_id": "566558907571-uk7hqje5t0clgug7hgu7vg03ne4mmaa4.apps.googleusercontent.com",
              "client_type": 3
            }
          ]
        }
      }
    }
  ],
  "configuration_version": "1"
}